digraph "AntWin"
{
  edge [fontname="Helvetica",fontsize="10",labelfontname="Helvetica",labelfontsize="10"];
  node [fontname="Helvetica",fontsize="10",shape=record];
  Node2 [label="{AntWin\n||+ AntWin()\l+ closeEvent()\l+ keyPressEvent()\l+ ~AntWin()\l+ paintEvent()\l+ step()\l}",height=0.2,width=0.4,color="black", fillcolor="grey75", style="filled", fontcolor="black"];
  Node3 -> Node2 [dir="back",color="midnightblue",fontsize="10",style="solid",arrowtail="onormal",fontname="Helvetica"];
  Node3 [label="{QMainWindow\n||}",height=0.2,width=0.4,color="grey75", fillcolor="white", style="filled"];
  Node4 -> Node2 [color="grey25",fontsize="10",style="solid",label=" +antThread" ,arrowhead="odiamond",fontname="Helvetica"];
  Node4 [label="{AntThread\n||+ AntThread()\l+ ~AntThread()\l+ run()\l+ finish()\l+ pause()\l+ isRunnung()\l}",height=0.2,width=0.4,color="black", fillcolor="white", style="filled",URL="$classAntThread.html"];
  Node5 -> Node4 [dir="back",color="midnightblue",fontsize="10",style="solid",arrowtail="onormal",fontname="Helvetica"];
  Node5 [label="{QThread\n||}",height=0.2,width=0.4,color="grey75", fillcolor="white", style="filled"];
}
