digraph "Graphical Class Hierarchy"
{
  edge [fontname="Helvetica",fontsize="10",labelfontname="Helvetica",labelfontsize="10"];
  node [fontname="Helvetica",fontsize="10",shape=record];
  rankdir="LR";
  Node0 [label="qt_meta_stringdata\l_AntWin_t",height=0.2,width=0.4,color="black", fillcolor="white", style="filled",URL="$structqt__meta__stringdata__AntWin__t.html"];
}
